…
<!-- end list -->

``` r
disease_channel <-
  epi_create_channel(time_serie = disease_pre,
                     disease_name = "dengv",
                     method = "gmean_1sd")
#> Joining, by = "var_admx"

disease_channel
#> # A tibble: 52 x 6
#>    var_admx var_week median  low_95 upp_95 key  
#>    <fct>       <dbl>  <dbl>   <dbl>  <dbl> <chr>
#>  1 iquitos         1   2.80  0.267    6.80 dengv
#>  2 iquitos         2   2.64  0.484    5.82 dengv
#>  3 iquitos         3   2.78  0.259    6.75 dengv
#>  4 iquitos         4   2.86  0.424    6.62 dengv
#>  5 iquitos         5   2.72  0.454    6.12 dengv
#>  6 iquitos         6   2.25  0.127    5.44 dengv
#>  7 iquitos         7   2.22  0.0474   5.52 dengv
#>  8 iquitos         8   2.34  0.167    5.61 dengv
#>  9 iquitos         9   1.82 -0.420    5.44 dengv
#> 10 iquitos        10   2.66 -0.513    8.65 dengv
#> # ... with 42 more rows
```
…
